<svg xmlns="http://www.w3.org/2000/svg" viewBox="0 0 47.5 47.5" style="enable-background:new 0 0 47.5 47.5;">
	<defs id="defs6">
		<clipPath id="clipPath16" clipPathUnits="userSpaceOnUse">
			<path id="path18" d="M 0,38 38,38 38,0 0,0 0,38 Z"/>
		</clipPath>
	</defs>
	<g transform="matrix(1.25,0,0,-1.25,0,47.5)" id="g10">
		<g id="g12">
			<g clip-path="url(#clipPath16)" id="g14">
				<g transform="translate(37,5)" id="g20">
					<path id="path22" style="fill:#3b88c3;fill-opacity:1;fill-rule:nonzero;stroke:none" d="m 0,0 c 0,-2.209 -1.791,-4 -4,-4 l -28,0 c -2.209,0 -4,1.791 -4,4 l 0,28 c 0,2.209 1.791,4 4,4 l 28,0 c 2.209,0 4,-1.791 4,-4 L 0,0 Z"/>
				</g>
				<g transform="translate(16.4282,19.4102)" id="g24">
					<path id="path26" style="fill:#ffffff;fill-opacity:1;fill-rule:nonzero;stroke:none" d="m 0,0 3.162,0 c 1.954,0 3.194,1.426 3.194,3.287 0,1.86 -1.24,3.286 -3.194,3.286 L 0,6.573 0,0 Z m -4.651,8.248 c 0,1.457 0.868,2.418 2.419,2.418 l 5.487,0 c 4.559,0 7.938,-2.977 7.938,-7.41 0,-4.527 -3.504,-7.349 -7.752,-7.349 l -3.441,0 0,-5.085 c 0,-1.551 -0.992,-2.418 -2.326,-2.418 -1.333,0 -2.325,0.867 -2.325,2.418 l 0,17.426 z"/>
				</g>
			</g>
		</g>
	</g>
</svg>