[
    {
        "id": 1,
        "barcode": "160001312487",
        "brand": "Au Style",
        "type": "T-Shirt Raglan Blue & White",
        "price": 75000,
        "code": "SKU-01",
        "qty": 5
    }, {
        "id": 2,
        "barcode": "160001312488",
        "brand": "Au Style",
        "type": "T-Shirt Raglan Orange & White",
        "price": 75000,
        "code": "SKU-02",
        "qty": 6
    }, {
        "id": 3,
        "barcode": "160001312489",
        "brand": "Au Style",
        "type": "Jacket Jeans Navy",
        "price": 200000,
        "code": "SKU-03",
        "qty": 10
    }, {
        "id": 4,
        "barcode": "160001312490",
        "brand": "Au Style",
        "type": "Jacket Jeans Black",
        "price": 200000,
        "code": "SKU-04",
        "qty": 7
    }, {
        "id": 5,
        "barcode": "160001312491",
        "brand": "Au Style",
        "type": "Hat Black",
        "price": 50000,
        "code": "SKU-05",
        "qty": 4
    }
]