[
	{
		"id": 1,
		"isAdmin": true,
		"email": "m.husein27@gmail.com",
		"password": "husein",
		"username": "Husein",
		"fullname": "Muhamad Husein",
		"avatar": "husein.jpg"
	}, {
		"id": 2,
		"isAdmin": false,
		"email": "angelina.jolie@gmail.com",
		"password": "Angie",
		"username": "Angie",
		"fullname": "Angelina Jolie",
		"avatar": "angelina-jolie.jpg"
	}
]