{
    "title": "Default exports",
    "id": "03",
    "entryModules": ["main.js"],
    "modules": [{
        "name": "main.js",
        "code": "/* DEFAULT EXPORTS\n   Default exports from the 'entry module' are\n   exported from the bundle */\nimport answer from './answer.js';\n\nexport default function () {\n\tconsole.log( 'the answer is ' + answer );\n}",
        "isEntry": true
    }, {
        "name": "answer.js",
        "code": "export default 42;",
        "isEntry": false
    }]
}