{
    "title": "Named exports",
    "id": "04",
    "entryModules": ["main.js"],
    "modules": [{
        "name": "main.js",
        "code": "/* NAMED EXPORTS\n   There are many ways to export bindings\n   from an ES2015 module */\nexport var foo = 1;\n\nexport function bar () {\n\treturn foo; // try changing this to `foo++`\n}\n\nfunction baz () {\n\treturn bar();\n}\n\nexport { baz };\nexport * from './qux';",
        "isEntry": true
    }, {
        "name": "qux.js",
        "code": "export var qux = 'QUX';",
        "isEntry": false
    }]
}